<ResourceDescription>
  <id gid="0x0000000100000001" type="BASEVOLTAGE" />
  <Properties>
    <Property id="BASEVOLTAGE_CONDEQS" value="0x0000000600000001" />
    <Property id="IDOBJ_MRID" value="BV_636195748119278551" />
  </Properties>
</ResourceDescription>